{
  "project_info": {
    "project_number": "370066175762",
    "firebase_url": "https://acegtpmobile.firebaseio.com",
    "project_id": "acegtpmobile",
    "storage_bucket": "acegtpmobile.appspot.com"
  },
  "client": [
    {
      "client_info": {
        "mobilesdk_app_id": "1:370066175762:android:2af1a41fa7a4805d",
        "android_client_info": {
          "package_name": "com.emts.gtp"
        }
      },
      "oauth_client": [
        {
          "client_id": "370066175762-nnvvppfb69g3d2u35qc3ogduuihraf2o.apps.googleusercontent.com",
          "client_type": 3
        }
      ],
      "api_key": [
        {
          "current_key": "AIzaSyDAPXDb9ogdlUi7qRKoJ3EOP1ajHmb-L-0"
        }
      ],
      "services": {
        "analytics_service": {
          "status": 1
        },
        "appinvite_service": {
          "status": 1,
          "other_platform_oauth_client": []
        },
        "ads_service": {
          "status": 2
        }
      }
    }
  ],
  "configuration_version": "1"
}